…
    ## `summarise()` has grouped output by 'mu', 'compare_to_alpha'. You can override
    ## using the `.groups` argument.

``` r
sim_decision2
```

    ## # A tibble: 23,375 × 5
    ## # Groups:   mu, compare_to_alpha [7]
    ##       mu compare_to_alpha estimate n_rej   prop
    ##    <dbl>            <dbl>    <dbl> <int>  <dbl>
    ##  1     0                1    -3.42     1 0.0002
    ##  2     0                1    -3.32     1 0.0002
    ##  3     0                1    -3.32     1 0.0002
    ##  4     0                1    -2.96     1 0.0002
    ##  5     0                1    -2.88     1 0.0002
    ##  6     0                1    -2.86     1 0.0002
    ##  7     0                1    -2.75     1 0.0002
    ##  8     0                1    -2.70     1 0.0002
    ##  9     0                1    -2.68     1 0.0002
    ## 10     0                1    -2.64     1 0.0002
    ## # … with 23,365 more rows
…
